%YAML 1.1
%TAG !u! tag:unity3d.com,2011:
--- !u!1001 &995212162611954808
PrefabInstance:
  m_ObjectHideFlags: 0
  serializedVersion: 2
  m_Modification:
    serializedVersion: 3
    m_TransformParent: {fileID: 0}
    m_Modifications:
    - target: {fileID: 100002, guid: 0b1f05848c1fb074b8a4e80b044f1b48, type: 3}
      propertyPath: m_Name
      value: InwardCornerBottomLeft
      objectReference: {fileID: 0}
    - target: {fileID: 400000, guid: 0b1f05848c1fb074b8a4e80b044f1b48, type: 3}
      propertyPath: m_LocalPosition.x
      value: -3
      objectReference: {fileID: 0}
    - target: {fileID: 400000, guid: 0b1f05848c1fb074b8a4e80b044f1b48, type: 3}
      propertyPath: m_LocalPosition.z
      value: -3
      objectReference: {fileID: 0}
    - target: {fileID: 400000, guid: 0b1f05848c1fb074b8a4e80b044f1b48, type: 3}
      propertyPath: m_LocalRotation.w
      value: 0
      objectReference: {fileID: 0}
    - target: {fileID: 400000, guid: 0b1f05848c1fb074b8a4e80b044f1b48, type: 3}
      propertyPath: m_LocalRotation.y
      value: 1
      objectReference: {fileID: 0}
    - target: {fileID: 400000, guid: 0b1f05848c1fb074b8a4e80b044f1b48, type: 3}
      propertyPath: m_LocalRotation.z
      value: 0
      objectReference: {fileID: 0}
    - target: {fileID: 400000, guid: 0b1f05848c1fb074b8a4e80b044f1b48, type: 3}
      propertyPath: m_LocalEulerAnglesHint.y
      value: 180
      objectReference: {fileID: 0}
    - target: {fileID: 400002, guid: 0b1f05848c1fb074b8a4e80b044f1b48, type: 3}
      propertyPath: m_LocalScale.x
      value: 0.33333334
      objectReference: {fileID: 0}
    - target: {fileID: 400002, guid: 0b1f05848c1fb074b8a4e80b044f1b48, type: 3}
      propertyPath: m_LocalScale.y
      value: 0.33333334
      objectReference: {fileID: 0}
    - target: {fileID: 400002, guid: 0b1f05848c1fb074b8a4e80b044f1b48, type: 3}
      propertyPath: m_LocalScale.z
      value: 0.33333334
      objectReference: {fileID: 0}
    - target: {fileID: 400002, guid: 0b1f05848c1fb074b8a4e80b044f1b48, type: 3}
      propertyPath: m_LocalPosition.x
      value: -23.87
      objectReference: {fileID: 0}
    - target: {fileID: 400002, guid: 0b1f05848c1fb074b8a4e80b044f1b48, type: 3}
      propertyPath: m_LocalPosition.y
      value: 0
      objectReference: {fileID: 0}
    - target: {fileID: 400002, guid: 0b1f05848c1fb074b8a4e80b044f1b48, type: 3}
      propertyPath: m_LocalPosition.z
      value: 0
      objectReference: {fileID: 0}
    - target: {fileID: 400002, guid: 0b1f05848c1fb074b8a4e80b044f1b48, type: 3}
      propertyPath: m_LocalRotation.w
      value: 1
      objectReference: {fileID: 0}
    - target: {fileID: 400002, guid: 0b1f05848c1fb074b8a4e80b044f1b48, type: 3}
      propertyPath: m_LocalRotation.x
      value: 0
      objectReference: {fileID: 0}
    - target: {fileID: 400002, guid: 0b1f05848c1fb074b8a4e80b044f1b48, type: 3}
      propertyPath: m_LocalRotation.y
      value: -0
      objectReference: {fileID: 0}
    - target: {fileID: 400002, guid: 0b1f05848c1fb074b8a4e80b044f1b48, type: 3}
      propertyPath: m_LocalRotation.z
      value: -0
      objectReference: {fileID: 0}
    - target: {fileID: 400002, guid: 0b1f05848c1fb074b8a4e80b044f1b48, type: 3}
      propertyPath: m_LocalEulerAnglesHint.x
      value: 0
      objectReference: {fileID: 0}
    - target: {fileID: 400002, guid: 0b1f05848c1fb074b8a4e80b044f1b48, type: 3}
      propertyPath: m_LocalEulerAnglesHint.y
      value: 0
      objectReference: {fileID: 0}
    - target: {fileID: 400002, guid: 0b1f05848c1fb074b8a4e80b044f1b48, type: 3}
      propertyPath: m_LocalEulerAnglesHint.z
      value: 0
      objectReference: {fileID: 0}
    - target: {fileID: 400002, guid: 0b1f05848c1fb074b8a4e80b044f1b48, type: 3}
      propertyPath: m_ConstrainProportionsScale
      value: 1
      objectReference: {fileID: 0}
    m_RemovedComponents: []
    m_RemovedGameObjects: []
    m_AddedGameObjects: []
    m_AddedComponents: []
  m_SourcePrefab: {fileID: 100100000, guid: 0b1f05848c1fb074b8a4e80b044f1b48, type: 3}
