%YAML 1.1
%TAG !u! tag:unity3d.com,2011:
--- !u!1001 &8678852034531273337
PrefabInstance:
  m_ObjectHideFlags: 0
  serializedVersion: 2
  m_Modification:
    serializedVersion: 3
    m_TransformParent: {fileID: 0}
    m_Modifications:
    - target: {fileID: 100002, guid: 761940915bc373f48b71f81a2c185861, type: 3}
      propertyPath: m_Name
      value: BridgeHorizontal
      objectReference: {fileID: 0}
    - target: {fileID: 400000, guid: 761940915bc373f48b71f81a2c185861, type: 3}
      propertyPath: m_LocalPosition.z
      value: -3
      objectReference: {fileID: 0}
    - target: {fileID: 400000, guid: 761940915bc373f48b71f81a2c185861, type: 3}
      propertyPath: m_LocalRotation.w
      value: 0.7071068
      objectReference: {fileID: 0}
    - target: {fileID: 400000, guid: 761940915bc373f48b71f81a2c185861, type: 3}
      propertyPath: m_LocalRotation.y
      value: 0.7071068
      objectReference: {fileID: 0}
    - target: {fileID: 400000, guid: 761940915bc373f48b71f81a2c185861, type: 3}
      propertyPath: m_LocalRotation.z
      value: 0
      objectReference: {fileID: 0}
    - target: {fileID: 400000, guid: 761940915bc373f48b71f81a2c185861, type: 3}
      propertyPath: m_LocalEulerAnglesHint.y
      value: 90
      objectReference: {fileID: 0}
    - target: {fileID: 400002, guid: 761940915bc373f48b71f81a2c185861, type: 3}
      propertyPath: m_LocalScale.x
      value: 0.33333334
      objectReference: {fileID: 0}
    - target: {fileID: 400002, guid: 761940915bc373f48b71f81a2c185861, type: 3}
      propertyPath: m_LocalScale.y
      value: 0.33333334
      objectReference: {fileID: 0}
    - target: {fileID: 400002, guid: 761940915bc373f48b71f81a2c185861, type: 3}
      propertyPath: m_LocalScale.z
      value: 0.33333334
      objectReference: {fileID: 0}
    - target: {fileID: 400002, guid: 761940915bc373f48b71f81a2c185861, type: 3}
      propertyPath: m_LocalPosition.x
      value: -0
      objectReference: {fileID: 0}
    - target: {fileID: 400002, guid: 761940915bc373f48b71f81a2c185861, type: 3}
      propertyPath: m_LocalPosition.y
      value: 0
      objectReference: {fileID: 0}
    - target: {fileID: 400002, guid: 761940915bc373f48b71f81a2c185861, type: 3}
      propertyPath: m_LocalPosition.z
      value: 14.2
      objectReference: {fileID: 0}
    - target: {fileID: 400002, guid: 761940915bc373f48b71f81a2c185861, type: 3}
      propertyPath: m_LocalRotation.w
      value: 1
      objectReference: {fileID: 0}
    - target: {fileID: 400002, guid: 761940915bc373f48b71f81a2c185861, type: 3}
      propertyPath: m_LocalRotation.x
      value: 0
      objectReference: {fileID: 0}
    - target: {fileID: 400002, guid: 761940915bc373f48b71f81a2c185861, type: 3}
      propertyPath: m_LocalRotation.y
      value: -0
      objectReference: {fileID: 0}
    - target: {fileID: 400002, guid: 761940915bc373f48b71f81a2c185861, type: 3}
      propertyPath: m_LocalRotation.z
      value: -0
      objectReference: {fileID: 0}
    - target: {fileID: 400002, guid: 761940915bc373f48b71f81a2c185861, type: 3}
      propertyPath: m_LocalEulerAnglesHint.x
      value: 0
      objectReference: {fileID: 0}
    - target: {fileID: 400002, guid: 761940915bc373f48b71f81a2c185861, type: 3}
      propertyPath: m_LocalEulerAnglesHint.y
      value: 0
      objectReference: {fileID: 0}
    - target: {fileID: 400002, guid: 761940915bc373f48b71f81a2c185861, type: 3}
      propertyPath: m_LocalEulerAnglesHint.z
      value: 0
      objectReference: {fileID: 0}
    - target: {fileID: 400002, guid: 761940915bc373f48b71f81a2c185861, type: 3}
      propertyPath: m_ConstrainProportionsScale
      value: 1
      objectReference: {fileID: 0}
    m_RemovedComponents: []
    m_RemovedGameObjects: []
    m_AddedGameObjects: []
    m_AddedComponents: []
  m_SourcePrefab: {fileID: 100100000, guid: 761940915bc373f48b71f81a2c185861, type: 3}
