%YAML 1.1
%TAG !u! tag:unity3d.com,2011:
--- !u!1001 &4802432139345839765
PrefabInstance:
  m_ObjectHideFlags: 0
  serializedVersion: 2
  m_Modification:
    serializedVersion: 3
    m_TransformParent: {fileID: 0}
    m_Modifications:
    - target: {fileID: 100002, guid: ca0d6e56881c23744ad4782754604b44, type: 3}
      propertyPath: m_Name
      value: Down T
      objectReference: {fileID: 0}
    - target: {fileID: 400000, guid: ca0d6e56881c23744ad4782754604b44, type: 3}
      propertyPath: m_LocalPosition.x
      value: -3
      objectReference: {fileID: 0}
    - target: {fileID: 400000, guid: ca0d6e56881c23744ad4782754604b44, type: 3}
      propertyPath: m_LocalPosition.y
      value: 0
      objectReference: {fileID: 0}
    - target: {fileID: 400000, guid: ca0d6e56881c23744ad4782754604b44, type: 3}
      propertyPath: m_LocalPosition.z
      value: 0
      objectReference: {fileID: 0}
    - target: {fileID: 400000, guid: ca0d6e56881c23744ad4782754604b44, type: 3}
      propertyPath: m_LocalRotation.w
      value: -0.7071068
      objectReference: {fileID: 0}
    - target: {fileID: 400000, guid: ca0d6e56881c23744ad4782754604b44, type: 3}
      propertyPath: m_LocalRotation.y
      value: 0.7071068
      objectReference: {fileID: 0}
    - target: {fileID: 400000, guid: ca0d6e56881c23744ad4782754604b44, type: 3}
      propertyPath: m_LocalRotation.z
      value: -0
      objectReference: {fileID: 0}
    - target: {fileID: 400000, guid: ca0d6e56881c23744ad4782754604b44, type: 3}
      propertyPath: m_LocalEulerAnglesHint.y
      value: 270
      objectReference: {fileID: 0}
    - target: {fileID: 400002, guid: ca0d6e56881c23744ad4782754604b44, type: 3}
      propertyPath: m_LocalScale.x
      value: 0.33333334
      objectReference: {fileID: 0}
    - target: {fileID: 400002, guid: ca0d6e56881c23744ad4782754604b44, type: 3}
      propertyPath: m_LocalScale.y
      value: 0.33333334
      objectReference: {fileID: 0}
    - target: {fileID: 400002, guid: ca0d6e56881c23744ad4782754604b44, type: 3}
      propertyPath: m_LocalScale.z
      value: 0.33333334
      objectReference: {fileID: 0}
    - target: {fileID: 400002, guid: ca0d6e56881c23744ad4782754604b44, type: 3}
      propertyPath: m_LocalPosition.x
      value: 0
      objectReference: {fileID: 0}
    - target: {fileID: 400002, guid: ca0d6e56881c23744ad4782754604b44, type: 3}
      propertyPath: m_LocalPosition.y
      value: 0
      objectReference: {fileID: 0}
    - target: {fileID: 400002, guid: ca0d6e56881c23744ad4782754604b44, type: 3}
      propertyPath: m_LocalPosition.z
      value: 21.45
      objectReference: {fileID: 0}
    - target: {fileID: 400002, guid: ca0d6e56881c23744ad4782754604b44, type: 3}
      propertyPath: m_LocalRotation.w
      value: 1
      objectReference: {fileID: 0}
    - target: {fileID: 400002, guid: ca0d6e56881c23744ad4782754604b44, type: 3}
      propertyPath: m_LocalRotation.x
      value: 0
      objectReference: {fileID: 0}
    - target: {fileID: 400002, guid: ca0d6e56881c23744ad4782754604b44, type: 3}
      propertyPath: m_LocalRotation.y
      value: -0
      objectReference: {fileID: 0}
    - target: {fileID: 400002, guid: ca0d6e56881c23744ad4782754604b44, type: 3}
      propertyPath: m_LocalRotation.z
      value: -0
      objectReference: {fileID: 0}
    - target: {fileID: 400002, guid: ca0d6e56881c23744ad4782754604b44, type: 3}
      propertyPath: m_LocalEulerAnglesHint.x
      value: 0
      objectReference: {fileID: 0}
    - target: {fileID: 400002, guid: ca0d6e56881c23744ad4782754604b44, type: 3}
      propertyPath: m_LocalEulerAnglesHint.y
      value: 0
      objectReference: {fileID: 0}
    - target: {fileID: 400002, guid: ca0d6e56881c23744ad4782754604b44, type: 3}
      propertyPath: m_LocalEulerAnglesHint.z
      value: 0
      objectReference: {fileID: 0}
    m_RemovedComponents: []
    m_RemovedGameObjects: []
    m_AddedGameObjects: []
    m_AddedComponents: []
  m_SourcePrefab: {fileID: 100100000, guid: ca0d6e56881c23744ad4782754604b44, type: 3}
