%YAML 1.1
%TAG !u! tag:unity3d.com,2011:
--- !u!114 &11400000
MonoBehaviour:
  m_ObjectHideFlags: 0
  m_CorrespondingSourceObject: {fileID: 0}
  m_PrefabInstance: {fileID: 0}
  m_PrefabAsset: {fileID: 0}
  m_GameObject: {fileID: 0}
  m_Enabled: 1
  m_EditorHideFlags: 0
  m_Script: {fileID: 11500000, guid: 4bf10f79e694543799f6f524f9464249, type: 3}
  m_Name: DirtDownT
  m_EditorClassIdentifier: 
  prefab: {fileID: 2360693246699849889, guid: ccc17ae09cbf046eeb1f456a2cc053e9, type: 3}
  top: 1
  bottom: 4
  left: 4
  right: 4
  weight: 0.3
