%YAML 1.1
%TAG !u! tag:unity3d.com,2011:
--- !u!114 &11400000
MonoBehaviour:
  m_ObjectHideFlags: 0
  m_CorrespondingSourceObject: {fileID: 0}
  m_PrefabInstance: {fileID: 0}
  m_PrefabAsset: {fileID: 0}
  m_GameObject: {fileID: 0}
  m_Enabled: 1
  m_EditorHideFlags: 0
  m_Script: {fileID: 11500000, guid: 4bf10f79e694543799f6f524f9464249, type: 3}
  m_Name: HorizontalStraight
  m_EditorClassIdentifier: 
  prefab: {fileID: 5590013150723050851, guid: 4e523e6d1af3d418e86141eb087d516d, type: 3}
  top: 1
  bottom: 1
  left: 2
  right: 2
  weight: 0.6
