%YAML 1.1
%TAG !u! tag:unity3d.com,2011:
--- !u!114 &11400000
MonoBehaviour:
  m_ObjectHideFlags: 0
  m_CorrespondingSourceObject: {fileID: 0}
  m_PrefabInstance: {fileID: 0}
  m_PrefabAsset: {fileID: 0}
  m_GameObject: {fileID: 0}
  m_Enabled: 1
  m_EditorHideFlags: 0
  m_Script: {fileID: 11500000, guid: 4bf10f79e694543799f6f524f9464249, type: 3}
  m_Name: VerticalStraight
  m_EditorClassIdentifier: 
  prefab: {fileID: 4352748132079307152, guid: fbaaa3099031a4c11a183713ddda56e2, type: 3}
  top: 2
  bottom: 2
  left: 1
  right: 1
  weight: 0.6
